^C:\PROGRAM FILES (X86)\STEAM\STEAMAPPS\COMMON\APP GAME KIT 2\TIER 2\APPS\TEMPLATE_WINDOWS_VS2013\CORE.CPP
/c /I..\..\common\Include /I..\..\common /Z7 /nologo /W3 /WX- /Od /Oy- /D WIN32 /D _DEBUG /D _WINDOWS /D IDE_VS2008 /D _CRT_SECURE_NO_WARNINGS /Gm- /EHsc /RTC1 /MTd /GS /fp:precise /Zc:wchar_t /Zc:forScope /Fo"DEBUG\\" /Fd"DEBUG\VC120.PDB" /Gd /TP /analyze- C:\PROGRAM FILES (X86)\STEAM\STEAMAPPS\COMMON\APP GAME KIT 2\TIER 2\APPS\TEMPLATE_WINDOWS_VS2013\CORE.CPP
^C:\PROGRAM FILES (X86)\STEAM\STEAMAPPS\COMMON\APP GAME KIT 2\TIER 2\APPS\TEMPLATE_WINDOWS_VS2013\TEMPLATE.CPP
/c /I..\..\common\Include /I..\..\common /Z7 /nologo /W3 /WX- /Od /Oy- /D WIN32 /D _DEBUG /D _WINDOWS /D IDE_VS2008 /D _CRT_SECURE_NO_WARNINGS /Gm- /EHsc /RTC1 /MTd /GS /fp:precise /Zc:wchar_t /Zc:forScope /Fo"DEBUG\\" /Fd"DEBUG\VC120.PDB" /Gd /TP /analyze- C:\PROGRAM FILES (X86)\STEAM\STEAMAPPS\COMMON\APP GAME KIT 2\TIER 2\APPS\TEMPLATE_WINDOWS_VS2013\TEMPLATE.CPP
^C:\PROGRAM FILES (X86)\STEAM\STEAMAPPS\COMMON\APP GAME KIT 2\TIER 2\APPS\ASTEROIDS\CORE.CPP
/c /I..\..\common\Include /I..\..\common /Z7 /nologo /W3 /WX- /Od /Oy- /D WIN32 /D _DEBUG /D _WINDOWS /D IDE_VS2008 /D _CRT_SECURE_NO_WARNINGS /Gm- /EHsc /RTC1 /MTd /GS /fp:precise /Zc:wchar_t /Zc:forScope /Fo"DEBUG\\" /Fd"DEBUG\VC120.PDB" /Gd /TP /analyze- C:\PROGRAM FILES (X86)\STEAM\STEAMAPPS\COMMON\APP GAME KIT 2\TIER 2\APPS\ASTEROIDS\CORE.CPP
^C:\PROGRAM FILES (X86)\STEAM\STEAMAPPS\COMMON\APP GAME KIT 2\TIER 2\APPS\ASTEROIDS\ASTEROIDS.CPP
/c /I..\..\common\Include /I..\..\common /Z7 /nologo /W3 /WX- /Od /Oy- /D WIN32 /D _DEBUG /D _WINDOWS /D IDE_VS2008 /D _CRT_SECURE_NO_WARNINGS /Gm- /EHsc /RTC1 /MTd /GS /fp:precise /Zc:wchar_t /Zc:forScope /Fo"DEBUG\\" /Fd"DEBUG\VC120.PDB" /Gd /TP /analyze- C:\PROGRAM FILES (X86)\STEAM\STEAMAPPS\COMMON\APP GAME KIT 2\TIER 2\APPS\ASTEROIDS\ASTEROIDS.CPP
